<svg width="102" height="12" viewBox="0 0 102 12" fill="none" xmlns="http://www.w3.org/2000/svg">
<path d="M7.19092 7.52832H9.02197C8.96338 8.22656 8.76807 8.84912 8.43604 9.396C8.104 9.93799 7.6377 10.3652 7.03711 10.6777C6.43652 10.9902 5.70654 11.1465 4.84717 11.1465C4.18799 11.1465 3.59473 11.0293 3.06738 10.7949C2.54004 10.5557 2.08838 10.2188 1.7124 9.78418C1.33643 9.34473 1.04834 8.81494 0.848145 8.19482C0.652832 7.57471 0.555176 6.88135 0.555176 6.11475V5.22852C0.555176 4.46191 0.655273 3.76855 0.855469 3.14844C1.06055 2.52832 1.35352 1.99854 1.73438 1.55908C2.11523 1.11475 2.57178 0.775391 3.104 0.541016C3.64111 0.306641 4.24414 0.189453 4.91309 0.189453C5.7627 0.189453 6.48047 0.345703 7.06641 0.658203C7.65234 0.970703 8.10645 1.40283 8.42871 1.95459C8.75586 2.50635 8.95605 3.13867 9.0293 3.85156H7.19824C7.14941 3.39258 7.04199 2.99951 6.87598 2.67236C6.71484 2.34521 6.47559 2.09619 6.1582 1.92529C5.84082 1.74951 5.42578 1.66162 4.91309 1.66162C4.49316 1.66162 4.12695 1.73975 3.81445 1.896C3.50195 2.05225 3.24072 2.28174 3.03076 2.58447C2.8208 2.88721 2.66211 3.26074 2.55469 3.70508C2.45215 4.14453 2.40088 4.64746 2.40088 5.21387V6.11475C2.40088 6.65186 2.44727 7.14014 2.54004 7.57959C2.6377 8.01416 2.78418 8.3877 2.97949 8.7002C3.17969 9.0127 3.43359 9.25439 3.74121 9.42529C4.04883 9.59619 4.41748 9.68164 4.84717 9.68164C5.36963 9.68164 5.79199 9.59863 6.11426 9.43262C6.44141 9.2666 6.68799 9.0249 6.854 8.70752C7.0249 8.38525 7.13721 7.99219 7.19092 7.52832ZM17.8878 4.78906V6.24658H12.2262V4.78906H17.8878ZM12.6803 0.335938V11H10.8419V0.335938H12.6803ZM19.3014 0.335938V11H17.4703V0.335938H19.3014ZM25.926 1.75684L22.7399 11H20.8137L24.8273 0.335938H26.0578L25.926 1.75684ZM28.592 11L25.3986 1.75684L25.2595 0.335938H26.4973L30.5256 11H28.592ZM28.4382 7.04492V8.50244H22.6374V7.04492H28.4382ZM40.3289 0.335938V11H38.4905L33.7078 3.36084V11H31.8694V0.335938H33.7078L38.5052 7.98975V0.335938H40.3289ZM50.8573 5.55078V9.62305C50.706 9.82324 50.4691 10.043 50.1469 10.2822C49.8295 10.5166 49.4071 10.7192 48.8798 10.8901C48.3524 11.061 47.6957 11.1465 46.9096 11.1465C46.2406 11.1465 45.6278 11.0342 45.0712 10.8096C44.5146 10.5801 44.0336 10.2456 43.6283 9.80615C43.2279 9.3667 42.9179 8.83203 42.6982 8.20215C42.4784 7.56738 42.3686 6.84473 42.3686 6.03418V5.29443C42.3686 4.48877 42.4687 3.771 42.6689 3.14111C42.8739 2.50635 43.1669 1.96924 43.5478 1.52979C43.9286 1.09033 44.3876 0.758301 44.9247 0.533691C45.4667 0.304199 46.0795 0.189453 46.7631 0.189453C47.6371 0.189453 48.3598 0.335938 48.9311 0.628906C49.5072 0.916992 49.9516 1.31738 50.2641 1.83008C50.5766 2.34277 50.7743 2.92871 50.8573 3.58789H49.0556C48.997 3.2168 48.8822 2.88477 48.7113 2.5918C48.5453 2.29883 48.3061 2.06934 47.9936 1.90332C47.6859 1.73242 47.2856 1.64697 46.7924 1.64697C46.3676 1.64697 45.994 1.72754 45.6718 1.88867C45.3495 2.0498 45.081 2.28662 44.8661 2.59912C44.6562 2.91162 44.4975 3.29248 44.39 3.7417C44.2826 4.19092 44.2289 4.70361 44.2289 5.27979V6.03418C44.2289 6.62012 44.2899 7.14014 44.412 7.59424C44.539 8.04834 44.7196 8.43164 44.954 8.74414C45.1933 9.05664 45.4838 9.29346 45.8256 9.45459C46.1674 9.61084 46.5531 9.68896 46.9828 9.68896C47.4027 9.68896 47.747 9.65479 48.0155 9.58643C48.2841 9.51318 48.4965 9.42773 48.6527 9.33008C48.8139 9.22754 48.9384 9.12988 49.0263 9.03711V6.92041H46.807V5.55078H50.8573ZM60.0234 9.54248V11H54.3618V9.54248H60.0234ZM54.8818 0.335938V11H53.0435V0.335938H54.8818ZM59.2837 4.78906V6.22461H54.3618V4.78906H59.2837ZM59.9868 0.335938V1.80078H54.3618V0.335938H59.9868ZM72.2399 9.54248V11H66.8859V9.54248H72.2399ZM67.3986 0.335938V11H65.5603V0.335938H67.3986ZM81.8309 5.375V5.96094C81.8309 6.7666 81.7259 7.48926 81.5159 8.12891C81.306 8.76855 81.0057 9.31299 80.615 9.76221C80.2293 10.2114 79.7654 10.5557 79.2234 10.7949C78.6814 11.0293 78.0809 11.1465 77.4217 11.1465C76.7674 11.1465 76.1692 11.0293 75.6272 10.7949C75.0901 10.5557 74.6238 10.2114 74.2283 9.76221C73.8328 9.31299 73.5252 8.76855 73.3055 8.12891C73.0906 7.48926 72.9832 6.7666 72.9832 5.96094V5.375C72.9832 4.56934 73.0906 3.84912 73.3055 3.21436C73.5203 2.57471 73.823 2.03027 74.2137 1.58105C74.6092 1.12695 75.0755 0.782715 75.6126 0.54834C76.1546 0.309082 76.7527 0.189453 77.407 0.189453C78.0662 0.189453 78.6668 0.309082 79.2088 0.54834C79.7508 0.782715 80.2171 1.12695 80.6077 1.58105C80.9983 2.03027 81.2986 2.57471 81.5086 3.21436C81.7234 3.84912 81.8309 4.56934 81.8309 5.375ZM79.9925 5.96094V5.36035C79.9925 4.76465 79.9339 4.23975 79.8167 3.78564C79.7044 3.32666 79.5359 2.94336 79.3113 2.63574C79.0916 2.32324 78.8206 2.08887 78.4983 1.93262C78.1761 1.77148 77.8123 1.69092 77.407 1.69092C77.0018 1.69092 76.6404 1.77148 76.323 1.93262C76.0057 2.08887 75.7347 2.32324 75.5101 2.63574C75.2903 2.94336 75.1219 3.32666 75.0047 3.78564C74.8875 4.23975 74.8289 4.76465 74.8289 5.36035V5.96094C74.8289 6.55664 74.8875 7.08398 75.0047 7.54297C75.1219 8.00195 75.2928 8.39014 75.5174 8.70752C75.7469 9.02002 76.0203 9.25684 76.3377 9.41797C76.6551 9.57422 77.0164 9.65234 77.4217 9.65234C77.8318 9.65234 78.1956 9.57422 78.513 9.41797C78.8304 9.25684 79.0989 9.02002 79.3186 8.70752C79.5384 8.39014 79.7044 8.00195 79.8167 7.54297C79.9339 7.08398 79.9925 6.55664 79.9925 5.96094ZM92.0077 5.55078V9.62305C91.8564 9.82324 91.6195 10.043 91.2973 10.2822C90.9799 10.5166 90.5575 10.7192 90.0302 10.8901C89.5028 11.061 88.8461 11.1465 88.06 11.1465C87.391 11.1465 86.7782 11.0342 86.2216 10.8096C85.6649 10.5801 85.184 10.2456 84.7787 9.80615C84.3783 9.3667 84.0683 8.83203 83.8485 8.20215C83.6288 7.56738 83.519 6.84473 83.519 6.03418V5.29443C83.519 4.48877 83.619 3.771 83.8192 3.14111C84.0243 2.50635 84.3173 1.96924 84.6982 1.52979C85.079 1.09033 85.538 0.758301 86.0751 0.533691C86.6171 0.304199 87.2299 0.189453 87.9135 0.189453C88.7875 0.189453 89.5102 0.335938 90.0815 0.628906C90.6576 0.916992 91.102 1.31738 91.4145 1.83008C91.727 2.34277 91.9247 2.92871 92.0077 3.58789H90.206C90.1474 3.2168 90.0326 2.88477 89.8617 2.5918C89.6957 2.29883 89.4565 2.06934 89.144 1.90332C88.8363 1.73242 88.4359 1.64697 87.9428 1.64697C87.518 1.64697 87.1444 1.72754 86.8222 1.88867C86.4999 2.0498 86.2314 2.28662 86.0165 2.59912C85.8065 2.91162 85.6479 3.29248 85.5404 3.7417C85.433 4.19092 85.3793 4.70361 85.3793 5.27979V6.03418C85.3793 6.62012 85.4403 7.14014 85.5624 7.59424C85.6894 8.04834 85.87 8.43164 86.1044 8.74414C86.3437 9.05664 86.6342 9.29346 86.976 9.45459C87.3178 9.61084 87.7035 9.68896 88.1332 9.68896C88.5531 9.68896 88.8974 9.65479 89.1659 9.58643C89.4345 9.51318 89.6469 9.42773 89.8031 9.33008C89.9643 9.22754 90.0888 9.12988 90.1767 9.03711V6.92041H87.9574V5.55078H92.0077ZM99.8042 8.25342C99.8042 8.03369 99.77 7.83838 99.7017 7.66748C99.6382 7.49658 99.5234 7.34033 99.3574 7.19873C99.1914 7.05713 98.957 6.92041 98.6543 6.78857C98.3564 6.65186 97.9756 6.5127 97.5117 6.37109C97.0039 6.21484 96.5352 6.0415 96.1055 5.85107C95.6807 5.65576 95.3096 5.43115 94.9922 5.17725C94.6748 4.91846 94.4282 4.62305 94.2524 4.29102C94.0767 3.9541 93.9888 3.56592 93.9888 3.12646C93.9888 2.69189 94.0791 2.29639 94.2598 1.93994C94.4453 1.5835 94.7065 1.27588 95.0435 1.01709C95.3853 0.753418 95.7881 0.550781 96.252 0.40918C96.7158 0.262695 97.2285 0.189453 97.79 0.189453C98.5811 0.189453 99.2622 0.335938 99.8335 0.628906C100.41 0.921875 100.852 1.31494 101.159 1.80811C101.472 2.30127 101.628 2.8457 101.628 3.44141H99.8042C99.8042 3.08984 99.7285 2.77979 99.5771 2.51123C99.4307 2.23779 99.2061 2.02295 98.9033 1.8667C98.6055 1.71045 98.2271 1.63232 97.7681 1.63232C97.3335 1.63232 96.9722 1.69824 96.6841 1.83008C96.396 1.96191 96.1812 2.14014 96.0396 2.36475C95.8979 2.58936 95.8271 2.84326 95.8271 3.12646C95.8271 3.32666 95.8735 3.50977 95.9663 3.67578C96.0591 3.83691 96.2007 3.98828 96.3911 4.12988C96.5815 4.2666 96.8208 4.396 97.1089 4.51807C97.397 4.64014 97.7363 4.75732 98.127 4.86963C98.7178 5.04541 99.2329 5.24072 99.6724 5.45557C100.112 5.66553 100.478 5.90479 100.771 6.17334C101.064 6.44189 101.284 6.74707 101.43 7.08887C101.577 7.42578 101.65 7.80908 101.65 8.23877C101.65 8.68799 101.56 9.09326 101.379 9.45459C101.198 9.81104 100.939 10.1162 100.603 10.3701C100.271 10.6191 99.8701 10.812 99.4014 10.9487C98.9375 11.0806 98.4199 11.1465 97.8486 11.1465C97.3359 11.1465 96.8306 11.0781 96.3325 10.9414C95.8394 10.8047 95.3901 10.5972 94.9849 10.3188C94.5796 10.0356 94.2573 9.68408 94.0181 9.26416C93.7788 8.83936 93.6592 8.34375 93.6592 7.77734H95.4976C95.4976 8.12402 95.5562 8.41943 95.6733 8.66357C95.7954 8.90771 95.9639 9.10791 96.1787 9.26416C96.3936 9.41553 96.6426 9.52783 96.9258 9.60107C97.2139 9.67432 97.5215 9.71094 97.8486 9.71094C98.2783 9.71094 98.6372 9.6499 98.9253 9.52783C99.2183 9.40576 99.438 9.23486 99.5845 9.01514C99.731 8.79541 99.8042 8.5415 99.8042 8.25342Z" fill="white"/>
</svg>
