<svg width="35" height="35" viewBox="0 0 35 35" fill="none" xmlns="http://www.w3.org/2000/svg">
<path d="M33.9995 4.89653C33.9771 6.10955 33.2929 7.07502 32.3375 7.82721C32.2841 14.3467 27.8241 14.6146 24.9229 13.4362C24.7835 13.3795 24.8614 19.3945 24.8614 20.3877C24.8614 24.7925 24.1709 28.3769 22.5077 31.8173C22.0055 32.8559 21.1911 34.9815 21.2616 33.0149C21.3427 30.7494 22.5297 29.3151 22.3692 26.8705C22.3608 26.7431 21.7945 27.4516 21.7538 27.4954C21.3015 27.9826 20.8662 28.5019 20.4308 29.0315C19.2339 30.4874 17.9898 31.5841 16.6156 32.4942C16.2864 32.7122 13.1721 34.1653 13.9388 33.4575C15.1702 32.3208 16.0449 30.7605 16.431 28.4326C16.7227 26.6741 16.2481 27.6066 15.7849 28.1202C14.9934 28.9978 13.9774 29.8546 13.1081 30.4634C12.5885 30.8272 7.11286 34.8198 6.98525 33.848C6.93046 33.4307 8.38454 30.5709 8.52365 30.203C8.7208 29.6817 9.40434 26.2588 9.06209 27.4172C8.66721 28.7538 7.52811 30.2368 6.69296 30.6717C5.17276 31.4633 4.29566 32.0776 2.64698 32.0776C0.571072 32.0776 1.04705 29.0877 1.04705 26.0894C1.04705 21.1147 1.16695 13.1328 5.06226 13.8267C7.31116 14.2273 9.10451 14.2277 11.2928 13.5664C14.1607 12.6996 16.0003 10.8044 16.0003 5.72966C16.0003 4.41488 15.6628 2.55333 16.6771 2.55333C18.3521 2.55333 19.9937 1.96189 21.6308 1.40777C23.4024 0.8081 34.0864 0.191295 33.9995 4.89653Z" fill="#78111F"/>
<path d="M26.5229 10.0516C28.0337 9.91698 33.933 8.49771 33.9995 4.89653C34.0864 0.191295 23.4024 0.8081 21.6308 1.40777C19.9937 1.96189 18.3521 2.55333 16.6771 2.55333C15.6628 2.55333 16.0003 4.41488 16.0003 5.72966C16.0003 10.8044 14.1607 12.6996 11.2928 13.5664C9.10451 14.2277 7.31116 14.2273 5.06226 13.8267C1.16695 13.1328 1.04705 21.1147 1.04705 26.0894C1.04705 29.0877 0.571072 32.0776 2.64698 32.0776C4.29566 32.0776 5.17276 31.4633 6.69296 30.6717C7.52811 30.2368 8.66721 28.7538 9.06209 27.4172C9.40434 26.2588 8.7208 29.6817 8.52365 30.203C8.38454 30.5709 6.93046 33.4307 6.98525 33.848C7.11286 34.8198 12.5885 30.8272 13.1081 30.4634C13.9774 29.8546 14.9934 28.9978 15.7849 28.1202C16.2481 27.6066 16.7227 26.6741 16.431 28.4326C16.0449 30.7605 15.1702 32.3208 13.9388 33.4575C13.1721 34.1653 16.2864 32.7122 16.6156 32.4942C17.9898 31.5841 19.2339 30.4874 20.4308 29.0315C20.8662 28.5019 21.3015 27.9826 21.7538 27.4954C21.7945 27.4516 22.3608 26.7431 22.3692 26.8705C22.5297 29.3151 21.3427 30.7494 21.2616 33.0149C21.1911 34.9815 22.0055 32.8559 22.5077 31.8173C24.1709 28.3769 24.8614 24.7925 24.8614 20.3877C24.8614 19.3945 24.7835 13.3795 24.9229 13.4362C27.8417 14.6217 32.338 14.3434 32.338 7.70836" stroke="white" stroke-linecap="round"/>
<path d="M23.3729 5.44231H25.0509" stroke="white" stroke-linecap="round"/>
</svg>
