[gd_scene format=2]

[node name="widget_bg" type="ColorRect"]
margin_right = 790.0
margin_bottom = 100.0
color = Color( 1, 1, 1, 0.0392157 )

[node name="Button_miner" type="Button" parent="."]
margin_left = 256.0
margin_top = 70.0
margin_right = 756.0
margin_bottom = 90.0

[node name="Button_pool" type="Button" parent="."]
margin_left = 256.0
margin_top = 41.0
margin_right = 756.0
margin_bottom = 61.0

[node name="Label_miner" type="Label" parent="."]
margin_left = 35.0
margin_top = 70.0
margin_right = 179.0
margin_bottom = 84.0
text = "Miner Software"
align = 1

[node name="Label_pool" type="Label" parent="."]
margin_left = 35.0
margin_top = 41.0
margin_right = 179.0
margin_bottom = 55.0
text = "Mining Pool"
align = 1

[node name="Label_device" type="Label" parent="."]
margin_left = 35.0
margin_top = 5.0
margin_right = 735.0
margin_bottom = 35.0
text = "NAME_INVALID"
align = 1
